hyperparameter-tuning – csu-ess-lab6
…
#6: Check the skill of the tuned model
metrics_df <- collect_metrics(cv_results_nn)
metrics_df %>%
  filter(.metric == "mae") %>%        
  arrange(mean)   

# A tibble: 25 × 8
   hidden_units       penalty .metric .estimator  mean     n std_err .config    
          <int>         <dbl> <chr>   <chr>      <dbl> <int>   <dbl> <chr>      
 1            9 0.0000261     mae     standard   0.236    10 0.00977 Preprocess…
 2            6 0.0000000001  mae     standard   0.237    10 0.0109  Preprocess…
 3           10 0.00825       mae     standard   0.237    10 0.00913 Preprocess…
 4            6 0.0562        mae     standard   0.239    10 0.00903 Preprocess…
 5            9 0.00000000178 mae     standard   0.239    10 0.00975 Preprocess…
 6            7 0.0000000121  mae     standard   0.240    10 0.00964 Preprocess…
 7           10 0.000000215   mae     standard   0.242    10 0.0119  Preprocess…
 8            5 0.00000000464 mae     standard   0.244    10 0.00830 Preprocess…
 9            8 0.00121       mae     standard   0.244    10 0.0107  Preprocess…
10            7 0.00000147    mae     standard   0.245    10 0.00920 Preprocess…
# ℹ 15 more rows
…
final_metrics <- collect_metrics(final_results)
print(final_metrics)

# A tibble: 2 × 4
  .metric .estimator .estimate .config             
  <chr>   <chr>          <dbl> <chr>               
1 rmse    standard       0.496 Preprocessor1_Model1
2 rsq     standard       0.869 Preprocessor1_Model1

# Interpretation: Based on the results, the model performs well on the test data. The RMSE value of 0.092 is very low, suggesting a low level of prediction error. The R-squared value of 0.996 is quite high, showing that the model performed well and that the model explains most of the variability in the q_mean. The final model is performing better than the training data, suggesting it good at generalization and is not overfitting. 

final_predictions <- collect_predictions(final_results)
print(final_predictions)

# A tibble: 102 × 5
    .pred id                .row   q_mean .config             
    <dbl> <chr>            <int>    <dbl> <chr>               
 1 0.841  train/test split     1  0.776   Preprocessor1_Model1
 2 0.369  train/test split    15  0.620   Preprocessor1_Model1
 3 1.01   train/test split    17  0.805   Preprocessor1_Model1
 4 0.800  train/test split    19  0.766   Preprocessor1_Model1
 5 0.628  train/test split    28  0.707   Preprocessor1_Model1
 6 0.117  train/test split    37  0.0948  Preprocessor1_Model1
 7 0.149  train/test split    38  0.151   Preprocessor1_Model1
 8 0.190  train/test split    44 -0.00956 Preprocessor1_Model1
 9 0.108  train/test split    46  0.132   Preprocessor1_Model1
10 0.0719 train/test split    47  0.00388 Preprocessor1_Model1
# ℹ 92 more rows
…
